…
``` r
   ny_noaa_clean|>
  group_by(snow) |> summarize(count = n(), na.rm=TRUE) |> arrange(desc(count)) 
```

    ## # A tibble: 282 × 3
    ##     snow   count na.rm
    ##    <dbl>   <int> <lgl>
    ##  1     0 2008508 TRUE 
    ##  2    NA  381221 TRUE 
    ##  3    25   31022 TRUE 
    ##  4    13   23095 TRUE 
    ##  5    51   18274 TRUE 
    ##  6    76   10173 TRUE 
    ##  7     8    9962 TRUE 
    ##  8     5    9748 TRUE 
    ##  9    38    9197 TRUE 
    ## 10     3    8790 TRUE 
    ## # ℹ 272 more rows
…
